Abaqus JOB Job-1
Abaqus 6.14-1
Abaqus License Manager checked out the following licenses:
Abaqus/Standard checked out 5 tokens from Flexnet server rrsg.ee.uct.ac.za.
<26 out of 112 licenses remain available>.
Abaqus Warning: Your Abaqus license will expire in 27 days.
Begin Analysis Input File Processor
Mon Jun  3 15:14:37 2019
Run pre
Mon Jun  3 15:14:39 2019
End Analysis Input File Processor
Begin Abaqus/Standard Analysis
Mon Jun  3 15:14:39 2019
Run standard
Mon Jun  3 15:14:42 2019
End Abaqus/Standard Analysis
Abaqus JOB Job-1 COMPLETED
